Project/cache_out.vcd
$date
	Tue Nov 27 12:33:54 2018
$end
$version
	Icarus Verilog
$end
$timescale
	1ps
$end
$scope module cache_tb $end
$var wire 1 ! hit $end
$var reg 1 " clk $end
$var reg 32 # hit_count [31:0] $end
$var reg 32 $ instruction [31:0] $end
$var reg 32 % miss_count [31:0] $end
$var reg 32 & temp [31:0] $end
$var integer 32 ' file_open [31:0] $end
$var integer 32 ( file_scan [31:0] $end
$scope module uut $end
$var wire 1 " clk $end
$var wire 32 ) instruction [31:0] $end
$var wire 1 * signal $end
$var reg 1 ! hit $end
$scope module c $end
$var wire 1 " clk $end
$var wire 32 + instruction [31:0] $end
$var wire 20 , tag [19:0] $end
$var wire 4 - offset [3:0] $end
$var wire 8 . index [7:0] $end
$var reg 1 * signal $end
$scope begin loop_block $end
$upscope $end
$upscope $end
$upscope $end
$upscope $end
$enddefinitions $end
#0
$dumpvars
b11110101 .
b0 -
b11111111111111111 ,
b11111111111111111111101010000 +
x*
b11111111111111111111101010000 )
b1 (
b10000000000000000000000000000011 '
b11111111111111111111101010000 &
b0 %
b11111111111111111111101010000 $
b0 #
0"
x!
$end
#5000
0!
0*
1"
#10000
b1000 -
0"
b11111111111111111111101011000 $
b11111111111111111111101011000 )
b11111111111111111111101011000 +
b11111111111111111111101011000 &
#15000
1!
1*
b1 %
1"
#20000
b11111000 .
0"
b11111111111111111111110001000 $
b11111111111111111111110001000 )
b11111111111111111111110001000 +
b11111111111111111111110001000 &
#25000
0!
0*
b1 #
1"
#30000
b0 -
b11111001 .
0"
b11111111111111111111110010000 $
b11111111111111111111110010000 )
b11111111111111111111110010000 +
b11111111111111111111110010000 &
#35000
b10 %
1"
#40000
b1000 -
0"
b11111111111111111111110011000 $
b11111111111111111111110011000 )
b11111111111111111111110011000 +
b11111111111111111111110011000 &
#45000
1!
1*
b11 %
1"
#50000
b0 -
b11111010 .
0"
b11111111111111111111110100000 $
b11111111111111111111110100000 )
b11111111111111111111110100000 +
b11111111111111111111110100000 &
#55000
0!
0*
b10 #
1"
#60000
b1000 -
0"
b11111111111111111111110101000 $
b11111111111111111111110101000 )
b11111111111111111111110101000 +
b11111111111111111111110101000 &
#65000
1!
1*
b100 %
1"
#70000
b0 -
b11111011 .
0"
b11111111111111111111110110000 $
b11111111111111111111110110000 )
b11111111111111111111110110000 +
b11111111111111111111110110000 &
#75000
0!
0*
b11 #
1"
#80000
b1000 -
0"
b11111111111111111111110111000 $
b11111111111111111111110111000 )
b11111111111111111111110111000 +
b11111111111111111111110111000 &
#85000
1!
1*
b101 %
1"
#90000
b0 -
b11111100 .
0"
b11111111111111111111111000000 $
b11111111111111111111111000000 )
b11111111111111111111111000000 +
b11111111111111111111111000000 &
#95000
0!
0*
b100 #
1"
#100000
b1000 -
0"
b11111111111111111111111001000 $
b11111111111111111111111001000 )
b11111111111111111111111001000 +
b11111111111111111111111001000 &
#105000
1!
1*
b110 %
1"
#110000
b0 -
b11111101 .
0"
b11111111111111111111111010000 $
b11111111111111111111111010000 )
b11111111111111111111111010000 +
b11111111111111111111111010000 &
#115000
0!
0*
b101 #
1"
#120000
b1000 -
0"
b11111111111111111111111011000 $
b11111111111111111111111011000 )
b11111111111111111111111011000 +
b11111111111111111111111011000 &
#125000
1!
1*
b111 %
1"
#130000
b0 -
b11111110 .
0"
b11111111111111111111111100000 $
b11111111111111111111111100000 )
b11111111111111111111111100000 +
b11111111111111111111111100000 &
#135000
0!
0*
b110 #
1"
#140000
b1000 -
0"
b11111111111111111111111101000 $
b11111111111111111111111101000 )
b11111111111111111111111101000 +
b11111111111111111111111101000 &
#145000
1!
1*
b1000 %
1"
#150000
b0 -
b11111111 .
0"
b11111111111111111111111110000 $
b11111111111111111111111110000 )
b11111111111111111111111110000 +
b11111111111111111111111110000 &
#155000
0!
0*
b111 #
1"
#160000
b1000 -
0"
b11111111111111111111111111000 $
b11111111111111111111111111000 )
b11111111111111111111111111000 +
b11111111111111111111111111000 &
#165000
1!
1*
b1001 %
1"
#170000
b0 -
b0 .
b100000000000000000 ,
0"
b100000000000000000000000000000 $
b100000000000000000000000000000 )
b100000000000000000000000000000 +
b100000000000000000000000000000 &
#175000
0!
0*
b1000 #
1"
#180000
b1000 -
0"
b100000000000000000000000001000 $
b100000000000000000000000001000 )
b100000000000000000000000001000 +
b100000000000000000000000001000 &
#185000
1!
1*
b1010 %
1"
#190000
b0 -
b1 .
0"
b100000000000000000000000010000 $
b100000000000000000000000010000 )
b100000000000000000000000010000 +
b100000000000000000000000010000 &
#195000
0!
0*
b1001 #
1"
#200000
b1000 -
0"
b100000000000000000000000011000 $
b100000000000000000000000011000 )
b100000000000000000000000011000 +
b100000000000000000000000011000 &
#205000
1!
1*
b1011 %
1"
#210000
b0 -
b10 .
0"
b100000000000000000000000100000 $
b100000000000000000000000100000 )
b100000000000000000000000100000 +
b100000000000000000000000100000 &
#215000
0!
0*
b1010 #
1"
#220000
b1000 -
0"
b100000000000000000000000101000 $
b100000000000000000000000101000 )
b100000000000000000000000101000 +
b100000000000000000000000101000 &
#225000
1!
1*
b1100 %
1"
#230000
b0 -
b11 .
0"
b100000000000000000000000110000 $
b100000000000000000000000110000 )
b100000000000000000000000110000 +
b100000000000000000000000110000 &
#235000
0!
0*
b1011 #
1"
#240000
b1000 -
0"
b100000000000000000000000111000 $
b100000000000000000000000111000 )
b100000000000000000000000111000 +
b100000000000000000000000111000 &
#245000
1!
1*
b1101 %
1"
#250000
b0 -
b100 .
0"
b100000000000000000000001000000 $
b100000000000000000000001000000 )
b100000000000000000000001000000 +
b100000000000000000000001000000 &
#255000
0!
0*
b1100 #
1"
#260000
b1000 -
0"
b100000000000000000000001001000 $
b100000000000000000000001001000 )
b100000000000000000000001001000 +
b100000000000000000000001001000 &
#265000
1!
1*
b1110 %
1"
#270000
b0 -
b101 .
0"
b100000000000000000000001010000 $
b100000000000000000000001010000 )
b100000000000000000000001010000 +
b100000000000000000000001010000 &
#275000
0!
0*
b1101 #
1"
#280000
b1000 -
0"
b100000000000000000000001011000 $
b100000000000000000000001011000 )
b100000000000000000000001011000 +
b100000000000000000000001011000 &
#285000
1!
1*
b1111 %
1"
#290000
b0 -
b110 .
0"
b100000000000000000000001100000 $
b100000000000000000000001100000 )
b100000000000000000000001100000 +
b100000000000000000000001100000 &
#295000
0!
0*
b1110 #
1"
#300000
b1000 -
0"
b100000000000000000000001101000 $
b100000000000000000000001101000 )
b100000000000000000000001101000 +
b100000000000000000000001101000 &
#305000
1!
1*
b10000 %
1"
#310000
b0 -
b111 .
0"
b100000000000000000000001110000 $
b100000000000000000000001110000 )
b100000000000000000000001110000 +
b100000000000000000000001110000 &
#315000
0!
0*
b1111 #
1"
#320000
b1000 -
0"
b100000000000000000000001111000 $
b100000000000000000000001111000 )
b100000000000000000000001111000 +
b100000000000000000000001111000 &
#325000
1!
1*
b10001 %
1"
#330000
b0 -
b1000 .
0"
b100000000000000000000010000000 $
b100000000000000000000010000000 )
b100000000000000000000010000000 +
b100000000000000000000010000000 &
#335000
0!
0*
b10000 #
1"
#340000
b1000 -
0"
b100000000000000000000010001000 $
b100000000000000000000010001000 )
b100000000000000000000010001000 +
b100000000000000000000010001000 &
#345000
1!
1*
b10010 %
1"
#350000
b0 -
b1001 .
0"
b100000000000000000000010010000 $
b100000000000000000000010010000 )
b100000000000000000000010010000 +
b100000000000000000000010010000 &
#355000
0!
0*
b10001 #
1"
#360000
b1000 -
0"
b100000000000000000000010011000 $
b100000000000000000000010011000 )
b100000000000000000000010011000 +
b100000000000000000000010011000 &
#365000
1!
1*
b10011 %
1"
#370000
b0 -
b1010 .
0"
b100000000000000000000010100000 $
b100000000000000000000010100000 )
b100000000000000000000010100000 +
b100000000000000000000010100000 &
#375000
0!
0*
b10010 #
1"
#380000
b1000 -
0"
b100000000000000000000010101000 $
b100000000000000000000010101000 )
b100000000000000000000010101000 +
b100000000000000000000010101000 &
#385000
1!
1*
b10100 %
1"
#390000
b0 -
b1011 .
0"
b100000000000000000000010110000 $
b100000000000000000000010110000 )
b100000000000000000000010110000 +
b100000000000000000000010110000 &
#395000
0!
0*
b10011 #
1"
#400000
b1000 -
0"
b100000000000000000000010111000 $
b100000000000000000000010111000 )
b100000000000000000000010111000 +
b100000000000000000000010111000 &
#405000
1!
1*
b10101 %
1"
#410000
b0 -
b1100 .
0"
b100000000000000000000011000000 $
b100000000000000000000011000000 )
b100000000000000000000011000000 +
b100000000000000000000011000000 &
#415000
0!
0*
b10100 #
1"
#420000
b1000 -
0"
b100000000000000000000011001000 $
b100000000000000000000011001000 )
b100000000000000000000011001000 +
b100000000000000000000011001000 &
#425000
1!
1*
b10110 %
1"
#430000
b0 -
b1101 .
0"
b100000000000000000000011010000 $
b100000000000000000000011010000 )
b100000000000000000000011010000 +
b100000000000000000000011010000 &
#435000
0!
0*
b10101 #
1"
#440000
b1000 -
0"
b100000000000000000000011011000 $
b100000000000000000000011011000 )
b100000000000000000000011011000 +
b100000000000000000000011011000 &
#445000
1!
1*
b10111 %
1"
#450000
b0 -
b1110 .
0"
b100000000000000000000011100000 $
b100000000000000000000011100000 )
b100000000000000000000011100000 +
b100000000000000000000011100000 &
#455000
0!
0*
b10110 #
1"
#460000
b1000 -
0"
b100000000000000000000011101000 $
b100000000000000000000011101000 )
b100000000000000000000011101000 +
b100000000000000000000011101000 &
#465000
1!
1*
b11000 %
1"
#470000
b0 -
b1111 .
0"
b100000000000000000000011110000 $
b100000000000000000000011110000 )
b100000000000000000000011110000 +
b100000000000000000000011110000 &
#475000
0!
0*
b10111 #
1"
#480000
b1000 -
0"
b100000000000000000000011111000 $
b100000000000000000000011111000 )
b100000000000000000000011111000 +
b100000000000000000000011111000 &
#485000
1!
1*
b11001 %
1"
#490000
b0 -
b11110001 .
b110000000000110001 ,
0"
b110000000000110001111100010000 $
b110000000000110001111100010000 )
b110000000000110001111100010000 +
b110000000000110001111100010000 &
#495000
0!
0*
b11000 #
1"
#500000
b10010110 .
b110000000001001101 ,
0"
b110000000001001101100101100000 $
b110000000001001101100101100000 )
b110000000001001101100101100000 +
b110000000001001101100101100000 &
#505000
b11010 %
1"
#510000
b1000 -
0"
b110000000001001101100101101000 $
b110000000001001101100101101000 )
b110000000001001101100101101000 +
b110000000001001101100101101000 &
#515000
1!
1*
b11011 %
1"
#520000
b0 -
b10101010 .
b110000000001001100 ,
0"
b110000000001001100101010100000 $
b110000000001001100101010100000 )
b110000000001001100101010100000 +
b110000000001001100101010100000 &
#525000
0!
0*
b11001 #
1"
#530000
b10010111 .
b110000000001001101 ,
0"
b110000000001001101100101110000 $
b110000000001001101100101110000 )
b110000000001001101100101110000 +
b110000000001001101100101110000 &
#535000
b11100 %
1"
#540000
b10011000 .
0"
b110000000001001101100110000000 $
b110000000001001101100110000000 )
b110000000001001101100110000000 +
b110000000001001101100110000000 &
#545000
b11101 %
1"
#550000
b1000 -
b0 .
b110000000000000000 ,
0"
b110000000000000000000000001000 $
b110000000000000000000000001000 )
b110000000000000000000000001000 +
b110000000000000000000000001000 &
#555000
b11110 %
1"
#560000
b0 -
b10010111 .
b110000000001001101 ,
0"
b110000000001001101100101110000 $
b110000000001001101100101110000 )
b110000000001001101100101110000 +
b110000000001001101100101110000 &
#565000
1!
1*
b11111 %
1"
#570000
b10010110 .
0"
b110000000001001101100101100000 $
b110000000001001101100101100000 )
b110000000001001101100101100000 +
b110000000001001101100101100000 &
#575000
b11010 #
1"
#580000
b1000 -
0"
b110000000001001101100101101000 $
b110000000001001101100101101000 )
b110000000001001101100101101000 +
b110000000001001101100101101000 &
#585000
b11011 #
1"
#590000
b0 -
b10101010 .
b110000000001001100 ,
0"
b110000000001001100101010100000 $
b110000000001001100101010100000 )
b110000000001001100101010100000 +
b110000000001001100101010100000 &
#595000
b11100 #
1"
#600000
b1000 -
b10010111 .
b110000000001001101 ,
0"
b110000000001001101100101111000 $
b110000000001001101100101111000 )
b110000000001001101100101111000 +
b110000000001001101100101111000 &
#605000
b11101 #
1"
#610000
b11110101 .
b11111111111111111 ,
0"
b11111111111111111111101011000 $
b11111111111111111111101011000 )
b11111111111111111111101011000 +
b11111111111111111111101011000 &
#615000
b11110 #
1"
#620000
b10010111 .
b110000000001001101 ,
0"
b110000000001001101100101111000 $
b110000000001001101100101111000 )
b110000000001001101100101111000 +
b110000000001001101100101111000 &
#625000
b11111 #
1"
#630000
b11110110 .
b11111111111111111 ,
0"
b11111111111111111111101101000 $
b11111111111111111111101101000 )
b11111111111111111111101101000 +
b11111111111111111111101101000 &
#635000
0!
0*
b100000 #
1"
#640000
0"
#645000
1!
1*
b100000 %
1"
#650000
b0 -
b10011000 .
b110000000001001101 ,
0"
b110000000001001101100110000000 $
b110000000001001101100110000000 )
b110000000001001101100110000000 +
b110000000001001101100110000000 &
#655000
b100001 #
1"
#660000
b1000 -
b0 .
b110000000000000000 ,
0"
b110000000000000000000000001000 $
b110000000000000000000000001000 )
b110000000000000000000000001000 +
b110000000000000000000000001000 &
#665000
b100010 #
1"
#670000
b0 -
b10010111 .
b110000000001001101 ,
0"
b110000000001001101100101110000 $
b110000000001001101100101110000 )
b110000000001001101100101110000 +
b110000000001001101100101110000 &
#675000
b100011 #
1"
#680000
b10010110 .
0"
b110000000001001101100101100000 $
b110000000001001101100101100000 )
b110000000001001101100101100000 +
b110000000001001101100101100000 &
#685000
b100100 #
1"
#690000
b1000 -
0"
b110000000001001101100101101000 $
b110000000001001101100101101000 )
b110000000001001101100101101000 +
b110000000001001101100101101000 &
#695000
b100101 #
1"
#700000
b0 -
b10101010 .
b110000000001001100 ,
0"
b110000000001001100101010100000 $
b110000000001001100101010100000 )
b110000000001001100101010100000 +
b110000000001001100101010100000 &
#705000
b100110 #
1"
#710000
b1000 -
b10010111 .
b110000000001001101 ,
0"
b110000000001001101100101111000 $
b110000000001001101100101111000 )
b110000000001001101100101111000 +
b110000000001001101100101111000 &
#715000
b100111 #
1"
#720000
b11110101 .
b11111111111111111 ,
0"
b11111111111111111111101011000 $
b11111111111111111111101011000 )
b11111111111111111111101011000 +
b11111111111111111111101011000 &
#725000
b101000 #
1"
#730000
b10010111 .
b110000000001001101 ,
0"
b110000000001001101100101111000 $
b110000000001001101100101111000 )
b110000000001001101100101111000 +
b110000000001001101100101111000 &
#735000
b101001 #
1"
#740000
b0 -
b11110100 .
b11111111111111111 ,
0"
b11111111111111111111101000000 $
b11111111111111111111101000000 )
b11111111111111111111101000000 +
b11111111111111111111101000000 &
#745000
0!
0*
b101010 #
1"
#750000
b1000 -
b11110011 .
0"
b11111111111111111111100111000 $
b11111111111111111111100111000 )
b11111111111111111111100111000 +
b11111111111111111111100111000 &
#755000
b100001 %
1"
#760000
b0 -
b11110100 .
0"
b11111111111111111111101000000 $
b11111111111111111111101000000 )
b11111111111111111111101000000 +
b11111111111111111111101000000 &
#765000
1!
1*
b100010 %
1"
#770000
b1000 -
b11110011 .
0"
b11111111111111111111100111000 $
b11111111111111111111100111000 )
b11111111111111111111100111000 +
b11111111111111111111100111000 &
#775000
b101011 #
1"
#780000
b11110100 .
0"
b11111111111111111111101001000 $
b11111111111111111111101001000 )
b11111111111111111111101001000 +
b11111111111111111111101001000 &
#785000
b101100 #
1"
#790000
b0 -
b11011100 .
b10000000000110100 ,
0"
b10000000000110100110111000000 $
b10000000000110100110111000000 )
b10000000000110100110111000000 +
b10000000000110100110111000000 &
#795000
0!
0*
b101101 #
1"
#800000
b1000 -
b1000100 .
b1111111111100111 ,
0"
b1111111111100111010001001000 $
b1111111111100111010001001000 )
b1111111111100111010001001000 +
b1111111111100111010001001000 &
#805000
b100011 %
1"
#810000
b0 -
b11011011 .
b10000000000110100 ,
0"
b10000000000110100110110110000 $
b10000000000110100110110110000 )
b10000000000110100110110110000 +
b10000000000110100110110110000 &
#815000
b100100 %
1"
#820000
b11011010 .
0"
b10000000000110100110110100000 $
b10000000000110100110110100000 )
b10000000000110100110110100000 +
b10000000000110100110110100000 &
#825000
b100101 %
1"
#830000
b1000 -
0"
b10000000000110100110110101000 $
b10000000000110100110110101000 )
b10000000000110100110110101000 +
b10000000000110100110110101000 &
#835000
1!
1*
b100110 %
1"
#840000
b0 -
b11101110 .
b10000000000110011 ,
0"
b10000000000110011111011100000 $
b10000000000110011111011100000 )
b10000000000110011111011100000 +
b10000000000110011111011100000 &
#845000
0!
0*
b101110 #
1"
#850000
b1000 -
b10010111 .
b110000000001001101 ,
0"
b110000000001001101100101111000 $
b110000000001001101100101111000 )
b110000000001001101100101111000 +
b110000000001001101100101111000 &
#855000
1!
1*
b100111 %
1"
#860000
b11110110 .
b11111111111111111 ,
0"
b11111111111111111111101101000 $
b11111111111111111111101101000 )
b11111111111111111111101101000 +
b11111111111111111111101101000 &
#865000
b101111 #
1"
#870000
b10010111 .
b110000000001001101 ,
0"
b110000000001001101100101111000 $
b110000000001001101100101111000 )
b110000000001001101100101111000 +
b110000000001001101100101111000 &
#875000
b110000 #
1"
#880000
b11110111 .
b11111111111111111 ,
0"
b11111111111111111111101111000 $
b11111111111111111111101111000 )
b11111111111111111111101111000 +
b11111111111111111111101111000 &
#885000
0!
0*
b110001 #
1"
#890000
0"
#895000
1!
1*
b101000 %
1"
#900000
0"
#905000
b110010 #
1"
#910000
0"
#915000
b110011 #
1"
#920000
b0 -
b11110011 .
0"
b11111111111111111111100110000 $
b11111111111111111111100110000 )
b11111111111111111111100110000 +
b11111111111111111111100110000 &
#925000
b110100 #
1"
#930000
b1000 -
b11110010 .
0"
b11111111111111111111100101000 $
b11111111111111111111100101000 )
b11111111111111111111100101000 +
b11111111111111111111100101000 &
#935000
0!
0*
b110101 #
1"
#940000
b0 -
b10101101 .
b110000000001001100 ,
0"
b110000000001001100101011010000 $
b110000000001001100101011010000 )
b110000000001001100101011010000 +
b110000000001001100101011010000 &
#945000
b101001 %
1"
#950000
b1000 -
b11110010 .
b11111111111111111 ,
0"
b11111111111111111111100101000 $
b11111111111111111111100101000 )
b11111111111111111111100101000 +
b11111111111111111111100101000 &
#955000
1!
1*
b101010 %
1"
#960000
b0 -
b11110011 .
0"
b11111111111111111111100110000 $
b11111111111111111111100110000 )
b11111111111111111111100110000 +
b11111111111111111111100110000 &
#965000
b110110 #
1"
#970000
b1000 -
b11110010 .
0"
b11111111111111111111100101000 $
b11111111111111111111100101000 )
b11111111111111111111100101000 +
b11111111111111111111100101000 &
#975000
b110111 #
1"
#980000
b10111001 .
b110000000000111100 ,
0"
b110000000000111100101110011000 $
b110000000000111100101110011000 )
b110000000000111100101110011000 +
b110000000000111100101110011000 &
#985000
0!
0*
b111000 #
1"
#990000
b11010011 .
b110000000000101011 ,
0"
b110000000000101011110100111000 $
b110000000000101011110100111000 )
b110000000000101011110100111000 +
b110000000000101011110100111000 &
#995000
b101011 %
1"
#1000000
b0 -
b11010111 .
0"
b110000000000101011110101110000 $
b110000000000101011110101110000 )
b110000000000101011110101110000 +
b110000000000101011110101110000 &
#1005000
b101100 %
1"
#1010000
b1000 -
b11011010 .
0"
b110000000000101011110110101000 $
b110000000000101011110110101000 )
b110000000000101011110110101000 +
b110000000000101011110110101000 &
#1015000
b101101 %
1"
#1020000
b10111010 .
b110000000000111100 ,
0"
b110000000000111100101110101000 $
b110000000000111100101110101000 )
b110000000000111100101110101000 +
b110000000000111100101110101000 &
#1025000
b101110 %
1"
#1030000
b0 -
b10110110 .
0"
b110000000000111100101101100000 $
b110000000000111100101101100000 )
b110000000000111100101101100000 +
b110000000000111100101101100000 &
#1035000
b101111 %
1"
#1040000
b10110111 .
0"
b110000000000111100101101110000 $
b110000000000111100101101110000 )
b110000000000111100101101110000 +
b110000000000111100101101110000 &
#1045000
b110000 %
1"
#1050000
b1000 -
b1100111 .
b110000000000101100 ,
0"
b110000000000101100011001111000 $
b110000000000101100011001111000 )
b110000000000101100011001111000 +
b110000000000101100011001111000 &
#1055000
b110001 %
1"
#1060000
b11110001 .
b11111111111111111 ,
0"
b11111111111111111111100011000 $
b11111111111111111111100011000 )
b11111111111111111111100011000 +
b11111111111111111111100011000 &
#1065000
b110010 %
1"
#1070000
0"
#1075000
1!
1*
b110011 %
1"
#1080000
b11110010 .
0"
b11111111111111111111100101000 $
b11111111111111111111100101000 )
b11111111111111111111100101000 +
b11111111111111111111100101000 &
#1085000
b111001 #
1"
#1090000
b100 -
b1001100 .
b110000000000111101 ,
0"
b110000000000111101010011000100 $
b110000000000111101010011000100 )
b110000000000111101010011000100 +
b110000000000111101010011000100 &
#1095000
0!
0*
b111010 #
1"
#1100000
b0 -
b10101101 .
b110000000001001100 ,
0"
b110000000001001100101011010000 $
b110000000001001100101011010000 )
b110000000001001100101011010000 +
b110000000001001100101011010000 &
#1105000
1!
1*
b110100 %
1"
#1110000
b1000 -
b11110011 .
b11111111111111111 ,
0"
b11111111111111111111100111000 $
b11111111111111111111100111000 )
b11111111111111111111100111000 +
b11111111111111111111100111000 &
#1115000
b111011 #
1"
#1120000
b0 -
b11110100 .
0"
b11111111111111111111101000000 $
b11111111111111111111101000000 )
b11111111111111111111101000000 +
b11111111111111111111101000000 &
#1125000
b111100 #
1"
#1130000
b10001011 .
b100000000110111101 ,
0"
b100000000110111101100010110000 $
b100000000110111101100010110000 )
b100000000110111101100010110000 +
b100000000110111101100010110000 &
#1135000
0!
0*
b111101 #
1"
#1140000
b1000 -
b11110100 .
b11111111111111111 ,
0"
b11111111111111111111101001000 $
b11111111111111111111101001000 )
b11111111111111111111101001000 +
b11111111111111111111101001000 &
#1145000
1!
1*
b110101 %
1"
#1150000
b0 -
b11110101 .
0"
b11111111111111111111101010000 $
b11111111111111111111101010000 )
b11111111111111111111101010000 +
b11111111111111111111101010000 &
#1155000
b111110 #
1"
#1160000
b1000 -
0"
b11111111111111111111101011000 $
b11111111111111111111101011000 )
b11111111111111111111101011000 +
b11111111111111111111101011000 &
#1165000
b111111 #
1"
#1170000
b100 -
b11011100 .
b10000000000110100 ,
0"
b10000000000110100110111000100 $
b10000000000110100110111000100 )
b10000000000110100110111000100 +
b10000000000110100110111000100 &
#1175000
b1000000 #
1"
#1180000
b1100 -
b1000100 .
b1111111111100111 ,
0"
b1111111111100111010001001100 $
b1111111111100111010001001100 )
b1111111111100111010001001100 +
b1111111111100111010001001100 &
#1185000
b1000001 #
1"
#1190000
b100 -
b11011011 .
b10000000000110100 ,
0"
b10000000000110100110110110100 $
b10000000000110100110110110100 )
b10000000000110100110110110100 +
b10000000000110100110110110100 &
#1195000
b1000010 #
1"
#1200000
b11011010 .
0"
b10000000000110100110110100100 $
b10000000000110100110110100100 )
b10000000000110100110110100100 +
b10000000000110100110110100100 &
#1205000
0!
0*
b1000011 #
1"
#1210000
b1100 -
0"
b10000000000110100110110101100 $
b10000000000110100110110101100 )
b10000000000110100110110101100 +
b10000000000110100110110101100 &
#1215000
1!
1*
b110110 %
1"
#1220000
b100 -
b11101110 .
b10000000000110011 ,
0"
b10000000000110011111011100100 $
b10000000000110011111011100100 )
b10000000000110011111011100100 +
b10000000000110011111011100100 &
#1225000
b1000100 #
1"
#1230000
b1000 -
b10010111 .
b110000000001001101 ,
0"
b110000000001001101100101111000 $
b110000000001001101100101111000 )
b110000000001001101100101111000 +
b110000000001001101100101111000 &
#1235000
b1000101 #
1"
#1240000
b11110111 .
b11111111111111111 ,
0"
b11111111111111111111101111000 $
b11111111111111111111101111000 )
b11111111111111111111101111000 +
b11111111111111111111101111000 &
#1245000
b1000110 #
1"
#1250000
b10010111 .
b110000000001001101 ,
0"
b110000000001001101100101111000 $
b110000000001001101100101111000 )
b110000000001001101100101111000 +
b110000000001001101100101111000 &
#1255000
b1000111 #
1"
#1260000
b11111000 .
b11111111111111111 ,
0"
b11111111111111111111110001000 $
b11111111111111111111110001000 )
b11111111111111111111110001000 +
b11111111111111111111110001000 &
#1265000
b1001000 #
1"
#1270000
0"
#1275000
b1001001 #
1"
#1280000
0"
#1285000
b1001010 #
1"
#1290000
0"
#1295000
b1001011 #
1"
#1300000
b0 -
b1110111 .
0"
b11111111111111111011101110000 $
b11111111111111111011101110000 )
b11111111111111111011101110000 +
b11111111111111111011101110000 &
#1305000
0!
0*
b1001100 #
1"
#1310000
b1110010 .
0"
b11111111111111111011100100000 $
b11111111111111111011100100000 )
b11111111111111111011100100000 +
b11111111111111111011100100000 &
#1315000
b110111 %
1"
#1320000
b1000 -
0"
b11111111111111111011100101000 $
b11111111111111111011100101000 )
b11111111111111111011100101000 +
b11111111111111111011100101000 &
#1325000
1!
1*
b111000 %
1"
#1330000
b0 -
b1110011 .
0"
b11111111111111111011100110000 $
b11111111111111111011100110000 )
b11111111111111111011100110000 +
b11111111111111111011100110000 &
#1335000
0!
0*
b1001101 #
1"
#1340000
b1000 -
0"
b11111111111111111011100111000 $
b11111111111111111011100111000 )
b11111111111111111011100111000 +
b11111111111111111011100111000 &
#1345000
1!
1*
b111001 %
1"
#1350000
b0 -
b1110100 .
0"
b11111111111111111011101000000 $
b11111111111111111011101000000 )
b11111111111111111011101000000 +
b11111111111111111011101000000 &
#1355000
0!
0*
b1001110 #
1"
#1360000
b1000 -
0"
b11111111111111111011101001000 $
b11111111111111111011101001000 )
b11111111111111111011101001000 +
b11111111111111111011101001000 &
#1365000
1!
1*
b111010 %
1"
#1370000
b0 -
b1110101 .
0"
b11111111111111111011101010000 $
b11111111111111111011101010000 )
b11111111111111111011101010000 +
b11111111111111111011101010000 &
#1375000
0!
0*
b1001111 #
1"
#1380000
b1000 -
b1110001 .
0"
b11111111111111111011100011000 $
b11111111111111111011100011000 )
b11111111111111111011100011000 +
b11111111111111111011100011000 &
#1385000
b111011 %
1"
#1390000
b1110111 .
0"
b11111111111111111011101111000 $
b11111111111111111011101111000 )
b11111111111111111011101111000 +
b11111111111111111011101111000 &
#1395000
1!
1*
b111100 %
1"
#1400000
b0 -
b11101111 .
0"
b11111111111111111111011110000 $
b11111111111111111111011110000 )
b11111111111111111111011110000 +
b11111111111111111111011110000 &
#1405000
0!
0*
b1010000 #
1"
#1410000
b1000 -
0"
b11111111111111111111011111000 $
b11111111111111111111011111000 )
b11111111111111111111011111000 +
b11111111111111111111011111000 &
#1415000
1!
1*
b111101 %
1"
#1420000
b0 -
b11110000 .
0"
b11111111111111111111100000000 $
b11111111111111111111100000000 )
b11111111111111111111100000000 +
b11111111111111111111100000000 &
#1425000
0!
0*
b1010001 #
1"
#1430000
b1000 -
0"
b11111111111111111111100001000 $
b11111111111111111111100001000 )
b11111111111111111111100001000 +
b11111111111111111111100001000 &
#1435000
1!
1*
b111110 %
1"
#1440000
b11101110 .
0"
b11111111111111111111011101000 $
b11111111111111111111011101000 )
b11111111111111111111011101000 +
b11111111111111111111011101000 &
#1445000
0!
0*
b1010010 #
1"
#1450000
b100 -
b10101100 .
b110000000001001100 ,
0"
b110000000001001100101011000100 $
b110000000001001100101011000100 )
b110000000001001100101011000100 +
b110000000001001100101011000100 &
#1455000
b111111 %
1"
#1460000
b0 -
0"
b110000000001001100101011000000 $
b110000000001001100101011000000 )
b110000000001001100101011000000 +
b110000000001001100101011000000 &
#1465000
1!
1*
b1000000 %
1"
#1470000
0"
#1475000
b1010011 #
1"
#1480000
0"
#1485000
b1010100 #
1"
#1490000
b10101011 .
0"
b110000000001001100101010110000 $
b110000000001001100101010110000 )
b110000000001001100101010110000 +
b110000000001001100101010110000 &
#1495000
0!
0*
b1010101 #
1"
#1500000
b11101101 .
b11111111111111111 ,
0"
b11111111111111111111011010000 $
b11111111111111111111011010000 )
b11111111111111111111011010000 +
b11111111111111111111011010000 &
#1505000
b1000001 %
1"
#1510000
b1000 -
0"
b11111111111111111111011011000 $
b11111111111111111111011011000 )
b11111111111111111111011011000 +
b11111111111111111111011011000 &
#1515000
1!
1*
b1000010 %
1"
#1520000
b11101100 .
0"
b11111111111111111111011001000 $
b11111111111111111111011001000 )
b11111111111111111111011001000 +
b11111111111111111111011001000 &
#1525000
0!
0*
b1010110 #
1"
#1530000
0"
#1535000
1!
1*
b1000011 %
1"
#1540000
b0 -
b11101011 .
0"
b11111111111111111111010110000 $
b11111111111111111111010110000 )
b11111111111111111111010110000 +
b11111111111111111111010110000 &
#1545000
0!
0*
b1010111 #
1"
#1550000
b1000 -
0"
b11111111111111111111010111000 $
b11111111111111111111010111000 )
b11111111111111111111010111000 +
b11111111111111111111010111000 &
#1555000
1!
1*
b1000100 %
1"
#1560000
b0 -
b11101100 .
0"
b11111111111111111111011000000 $
b11111111111111111111011000000 )
b11111111111111111111011000000 +
b11111111111111111111011000000 &
#1565000
b1011000 #
1"
#1570000
b101010 .
b110000000000111100 ,
0"
b110000000000111100001010100000 $
b110000000000111100001010100000 )
b110000000000111100001010100000 +
b110000000000111100001010100000 &
#1575000
0!
0*
b1011001 #
1"
#1580000
b1000 -
b11101010 .
b11111111111111111 ,
0"
b11111111111111111111010101000 $
b11111111111111111111010101000 )
b11111111111111111111010101000 +
b11111111111111111111010101000 &
#1585000
b1000101 %
1"
#1590000
b10101101 .
b110000000001001100 ,
0"
b110000000001001100101011011000 $
b110000000001001100101011011000 )
b110000000001001100101011011000 +
b110000000001001100101011011000 &
#1595000
1!
1*
b1000110 %
1"
#1600000
b0 -
b101001 .
b110000000000111100 ,
0"
b110000000000111100001010010000 $
b110000000000111100001010010000 )
b110000000000111100001010010000 +
b110000000000111100001010010000 &
#1605000
0!
0*
b1011010 #
1"
#1610000
b111110 .
0"
b110000000000111100001111100000 $
b110000000000111100001111100000 )
b110000000000111100001111100000 +
b110000000000111100001111100000 &
#1615000
b1000111 %
1"
#1620000
b1000 -
b11101001 .
b11111111111111111 ,
0"
b11111111111111111111010011000 $
b11111111111111111111010011000 )
b11111111111111111111010011000 +
b11111111111111111111010011000 &
#1625000
b1001000 %
1"
